# Blender v2.79 (sub 0) OBJ File: 'coffee-mug.blend'
# www.blender.org
g Cylinder
v 5.543277 0.000000 -2.296101
v 5.543277 12.000000 -2.296101
v 5.543277 0.000000 2.296100
v 5.543277 12.000000 2.296100
v 2.296101 0.000000 5.543277
v 2.296101 12.000000 5.543277
v -2.296100 0.000000 5.543277
v -2.296100 12.000000 5.543277
v -5.543277 0.000000 2.296101
v -5.543277 12.000000 2.296101
v -5.543277 0.000000 -2.296101
v -5.543277 12.000000 -2.296101
v -2.296101 0.000000 -5.543277
v -2.296101 12.000000 -5.543277
v 2.296099 0.000000 -5.543278
v 2.296099 12.000000 -5.543278
v 5.543277 2.400000 -0.977661
v 5.543277 2.400000 0.977660
v 5.543277 9.600000 0.977660
v 5.543277 9.600000 -0.977661
v 9.043277 2.400000 -0.977661
v 9.043277 2.400000 0.977660
v 9.043277 9.600000 0.977660
v 9.043277 9.600000 -0.977661
v 5.543277 8.559999 0.977660
v 5.543277 3.440000 0.977660
v 7.943276 8.559999 0.977660
v 7.943276 3.440000 0.977660
v 5.543277 3.440000 -0.977661
v 5.543277 8.559999 -0.977661
v 7.943276 3.440000 -0.977661
v 7.943276 8.559999 -0.977661
v -1.836880 12.000000 4.434621
v 1.836881 12.000000 4.434621
v 4.434621 12.000000 -1.836881
v 4.434621 12.000000 1.836880
v -4.434621 12.000000 1.836880
v -4.434621 12.000000 -1.836881
v -1.836881 12.000000 -4.434622
v 1.836879 12.000000 -4.434623
v 4.434621 1.000000 -1.836882
v 1.836879 1.000000 -4.434623
v -1.836881 1.000000 -4.434622
v -4.434621 1.000000 -1.836881
v -4.434621 1.000000 1.836880
v -1.836880 1.000000 4.434620
v 1.836881 1.000000 4.434620
v 4.434621 1.000000 1.836879
v -0.000000 1.000000 -0.000001
v -0.000000 0.000000 0.000000
vt 0.875000 0.312500
vt 0.906250 0.218750
vt 0.906250 0.250000
vt 0.750000 -0.000000
vt 0.875000 -0.000000
vt 0.750000 0.312500
vt 0.625000 -0.000000
vt 0.625000 0.312500
vt 0.500000 -0.000000
vt 0.500000 0.312500
vt 0.375000 -0.000000
vt 0.375000 0.312500
vt 0.250000 0.000000
vt 0.387625 0.691851
vt 0.334017 0.784762
vt 0.306226 0.773250
vt 0.250000 0.312500
vt 0.125000 0.000000
vt 0.125000 0.312500
vt 0.000000 0.000000
vt 0.200380 0.969765
vt 0.142822 0.830808
vt 0.281779 0.888366
vt 0.968750 0.250000
vt 1.000000 0.312500
vt 1.000000 -0.000000
vt 0.968750 0.093750
vt 0.968750 0.062500
vt 0.906250 0.062500
vt 0.906250 0.906250
vt 0.843750 0.718750
vt 0.906250 0.718750
vt 0.843750 1.000000
vt 0.906250 1.000000
vt 0.875000 0.531250
vt 0.812500 0.500000
vt 0.875000 0.500000
vt 0.906250 0.625000
vt 0.843750 0.625000
vt 0.875000 0.343750
vt 0.937500 0.375000
vt 0.875000 0.375000
vt 0.875000 0.531250
vt 0.937500 0.500000
vt 0.968750 0.531250
vt 0.968750 0.343750
vt 0.906250 0.687500
vt 0.968750 0.625000
vt 0.968750 0.687500
vt 0.781250 0.343750
vt 0.781250 0.531250
vt 0.875000 0.343750
vt 0.812500 0.375000
vt 0.968750 0.843750
vt 0.906250 0.843750
vt 0.968750 0.906250
vt 0.906250 0.906250
vt 0.968750 0.218750
vt 0.906250 0.093750
vt 0.093750 0.625000
vt 0.187500 0.343750
vt 0.187500 0.625000
vt 0.387625 0.969765
vt 0.491229 0.941974
vt 0.502741 0.969765
vt 0.502741 0.691851
vt 0.556348 0.784762
vt 0.491229 0.719642
vt 0.399136 0.719642
vt 0.334017 0.876854
vt 0.306226 0.888366
vt 0.556348 0.876854
vt 0.584140 0.888366
vt 0.399136 0.941974
vt 0.584140 0.773250
vt 0.632077 0.740639
vt 0.678859 0.693856
vt 0.711940 0.773720
vt 0.281250 0.625000
vt 0.375000 0.343750
vt 0.375000 0.625000
vt 0.468750 0.625000
vt 0.562500 0.343750
vt 0.562500 0.625000
vt 0.656250 0.625000
vt 0.750000 0.343750
vt 0.750000 0.625000
vt 0.000000 0.625000
vt 0.093750 0.343750
vt 0.281250 0.343750
vt 0.468750 0.343750
vt 0.656250 0.343750
vt 0.745020 0.853583
vt 0.791803 0.806800
vt 0.632077 0.806800
vt 0.678859 0.853583
vt 0.791803 0.740639
vt 0.745020 0.693856
vt 0.281779 0.773250
vt 0.200380 0.691851
vt 0.003865 0.773250
vt 0.003865 0.888366
vt 0.085264 0.969765
vt 0.085264 0.691851
vt 0.000000 0.312500
vt 0.843750 0.906250
vt 0.875000 0.500000
vt 0.906250 0.625000
vt 0.875000 0.375000
vt 0.000000 0.343750
vn 1.0000 0.0000 0.0000
vn 0.7071 0.0000 0.7071
vn 0.0000 0.0000 1.0000
vn -0.7071 0.0000 0.7071
vn -1.0000 0.0000 0.0000
vn -0.7071 0.0000 -0.7071
vn 0.0000 1.0000 0.0000
vn -0.0000 0.0000 -1.0000
vn 0.7071 0.0000 -0.7071
vn 0.0000 -1.0000 0.0000
s off
f 4/1/1 25/2/1 19/3/1
f 4/1/2 5/4/2 3/5/2
f 6/6/3 7/7/3 5/4/3
f 8/8/4 9/9/4 7/7/4
f 10/10/5 11/11/5 9/9/5
f 12/12/6 13/13/6 11/11/6
f 4/14/7 34/15/7 6/16/7
f 14/17/8 15/18/8 13/13/8
f 16/19/9 1/20/9 15/18/9
f 1/21/10 50/22/10 15/23/10
f 4/1/1 20/24/1 2/25/1
f 1/26/1 29/27/1 17/28/1
f 1/26/1 18/29/1 3/5/1
f 24/30/1 22/31/1 21/32/1
f 19/33/7 24/30/7 20/34/7
f 20/35/8 32/36/8 30/37/8
f 17/38/10 22/31/10 18/39/10
f 18/40/3 28/41/3 26/42/3
f 19/43/3 27/44/3 23/45/3
f 22/46/3 27/44/3 28/41/3
f 31/47/7 26/48/7 28/49/7
f 21/50/8 32/36/8 24/51/8
f 17/52/8 31/53/8 21/50/8
f 31/47/5 27/54/5 32/55/5
f 32/55/10 25/56/10 30/57/10
f 30/58/1 26/59/1 29/27/1
f 36/60/6 47/61/6 34/62/6
f 10/63/7 38/64/7 12/65/7
f 2/66/7 40/67/7 35/68/7
f 4/14/7 35/68/7 36/69/7
f 6/16/7 33/70/7 8/71/7
f 12/65/7 39/72/7 14/73/7
f 10/63/7 33/70/7 37/74/7
f 14/73/7 40/67/7 16/75/7
f 48/76/7 41/77/7 49/78/7
f 33/79/9 45/80/9 37/81/9
f 38/82/2 43/83/2 39/84/2
f 40/85/4 41/86/4 35/87/4
f 35/88/5 48/89/5 36/60/5
f 34/62/8 46/90/8 33/79/8
f 38/82/1 45/80/1 44/91/1
f 39/84/3 42/92/3 40/85/3
f 45/93/7 49/78/7 44/94/7
f 47/95/7 49/78/7 46/96/7
f 43/97/7 49/78/7 42/98/7
f 49/78/7 47/95/7 48/76/7
f 44/94/7 49/78/7 43/97/7
f 46/96/7 49/78/7 45/93/7
f 42/98/7 49/78/7 41/77/7
f 13/99/10 50/22/10 11/100/10
f 15/23/10 50/22/10 13/99/10
f 7/101/10 50/22/10 5/102/10
f 50/22/10 3/103/10 5/102/10
f 9/104/10 50/22/10 7/101/10
f 11/100/10 50/22/10 9/104/10
f 3/103/10 50/22/10 1/21/10
f 26/59/1 3/5/1 18/29/1
f 25/2/1 3/5/1 26/59/1
f 30/58/1 2/25/1 20/24/1
f 29/27/1 2/25/1 30/58/1
f 4/1/2 6/6/2 5/4/2
f 6/6/3 8/8/3 7/7/3
f 8/8/4 10/10/4 9/9/4
f 10/10/5 12/12/5 11/11/5
f 12/12/6 14/17/6 13/13/6
f 4/14/7 36/69/7 34/15/7
f 14/17/8 16/19/8 15/18/8
f 16/19/9 2/105/9 1/20/9
f 4/1/1 19/3/1 20/24/1
f 1/26/1 17/28/1 18/29/1
f 24/30/1 23/106/1 22/31/1
f 19/33/7 23/106/7 24/30/7
f 20/35/8 24/51/8 32/36/8
f 17/38/10 21/32/10 22/31/10
f 18/40/3 22/46/3 28/41/3
f 19/43/3 25/107/3 27/44/3
f 22/46/3 23/45/3 27/44/3
f 31/47/7 29/108/7 26/48/7
f 21/50/8 31/53/8 32/36/8
f 17/52/8 29/109/8 31/53/8
f 31/47/5 28/49/5 27/54/5
f 32/55/10 27/54/10 25/56/10
f 30/58/1 25/2/1 26/59/1
f 36/60/6 48/89/6 47/61/6
f 10/63/7 37/74/7 38/64/7
f 2/66/7 16/75/7 40/67/7
f 4/14/7 2/66/7 35/68/7
f 6/16/7 34/15/7 33/70/7
f 12/65/7 38/64/7 39/72/7
f 10/63/7 8/71/7 33/70/7
f 14/73/7 39/72/7 40/67/7
f 33/79/9 46/90/9 45/80/9
f 38/82/2 44/91/2 43/83/2
f 40/85/4 42/92/4 41/86/4
f 35/88/5 41/110/5 48/89/5
f 34/62/8 47/61/8 46/90/8
f 38/82/1 37/81/1 45/80/1
f 39/84/3 43/83/3 42/92/3
f 25/2/1 4/1/1 3/5/1
f 29/27/1 1/26/1 2/25/1
