# Blender v2.79 (sub 0) OBJ File: 'cubes.blend'
# www.blender.org
v -1.000000 -1.000000 1.000000
v -1.000000 1.000000 0.875000
v 1.000000 -1.000000 1.000000
v 0.875000 1.000000 0.875000
v -1.000000 -1.000000 0.625000
v -1.000000 1.000000 0.625000
v 0.625000 1.000000 0.625000
v 0.625000 -1.000000 0.625000
v -1.000000 -0.750000 0.875000
v 0.875000 -0.750000 0.875000
v -1.000000 -0.750000 1.000000
v 1.000000 -0.750000 1.000000
v -0.875000 -0.625000 0.875000
v -0.875000 0.875000 0.875000
v 0.750000 0.875000 0.875000
v 0.750000 -0.625000 0.875000
v 0.500000 -0.625000 0.625000
v 0.500000 0.875000 0.625000
v -0.875000 0.875000 0.625000
v -0.875000 -0.625000 0.625000
vt 0.906250 0.437500
vt 0.968750 0.000000
vt 0.968750 0.500000
vt 0.531250 0.500000
vt 0.468750 0.906250
vt 0.468750 0.500000
vt 0.875000 0.500000
vt 0.875000 0.437500
vt 0.345971 0.468750
vt 0.408471 0.968750
vt 0.345971 0.968750
vt 0.968750 0.500000
vt 1.000000 0.031250
vt 1.000000 0.500000
vt 0.593750 0.843750
vt 0.656250 0.500000
vt 0.656250 0.906250
vt 0.468750 0.000000
vt 0.062500 0.031250
vt 0.031250 0.000000
vt 0.062500 0.437500
vt 0.031250 0.468750
vt 0.437500 0.437500
vt 0.468750 0.468750
vt 0.437500 0.031250
vt 0.875000 0.000000
vt 0.843750 0.406250
vt 0.843750 0.031250
vt 0.500000 0.031250
vt 0.468750 0.000000
vt 0.500000 0.406250
vt 0.468750 0.500000
vt 0.875000 0.500000
vt 0.593750 0.906250
vt 0.531250 0.562500
vt 0.593750 0.500000
vt 0.257583 0.843750
vt 0.345971 0.468750
vt 0.345971 0.843750
vt 0.718750 0.500000
vt 0.656250 0.875000
vt 0.163832 0.968750
vt 0.075444 0.531250
vt 0.163832 0.468750
vt 0.031250 0.468750
vt 0.031250 0.531250
vt 0.163832 0.468750
vt 0.257582 0.875000
vt 0.163832 0.968750
vt 0.906250 0.000000
vt 0.531250 0.968750
vt 0.408471 0.468750
vt 0.968750 0.000000
vt 0.593750 0.500000
vt 0.531250 0.906250
vt 0.257582 0.468750
vt 0.718750 0.875000
vt 0.075444 0.968750
vt 0.257582 0.468750
vn -1.0000 0.0000 0.0000
vn 0.0000 1.0000 0.0000
vn 0.0000 0.0000 1.0000
vn 0.0000 0.0000 -1.0000
vn 0.0000 -1.0000 0.0000
vn -0.7071 0.0000 0.7071
vn 1.0000 0.0000 0.0000
vn 0.7071 0.0000 -0.7071
s off
f 9/1/1 6/2/1 5/3/1
f 2/4/2 7/5/2 6/6/2
f 5/3/1 1/7/1 9/1/1
f 1/7/1 11/8/1 9/1/1
f 3/9/3 11/10/3 1/11/3
f 11/12/2 10/13/2 9/14/2
f 17/15/2 13/16/2 16/17/2
f 9/18/3 14/19/3 2/20/3
f 2/20/3 15/21/3 4/22/3
f 4/22/3 16/23/3 10/24/3
f 10/24/3 13/25/3 9/18/3
f 7/26/4 17/27/4 18/28/4
f 7/26/4 19/29/4 6/30/4
f 6/30/4 20/31/4 5/32/4
f 5/32/4 17/27/4 8/33/4
f 14/34/5 18/35/5 15/36/5
f 18/37/6 16/38/6 15/39/6
f 20/40/7 14/41/7 13/16/7
f 7/42/8 10/43/8 8/44/8
f 8/44/8 10/43/8 3/45/8
f 10/43/8 12/46/8 3/45/8
f 1/47/5 8/48/5 3/49/5
f 9/1/1 2/50/1 6/2/1
f 2/4/2 4/51/2 7/5/2
f 3/9/3 12/52/3 11/10/3
f 11/12/2 12/53/2 10/13/2
f 17/15/2 20/54/2 13/16/2
f 9/18/3 13/25/3 14/19/3
f 2/20/3 14/19/3 15/21/3
f 4/22/3 15/21/3 16/23/3
f 10/24/3 16/23/3 13/25/3
f 7/26/4 8/33/4 17/27/4
f 7/26/4 18/28/4 19/29/4
f 6/30/4 19/29/4 20/31/4
f 5/32/4 20/31/4 17/27/4
f 14/34/5 19/55/5 18/35/5
f 18/37/6 17/56/6 16/38/6
f 20/40/7 19/57/7 14/41/7
f 7/42/8 4/58/8 10/43/8
f 1/47/5 5/59/5 8/48/5
