# Blender v2.79 (sub 0) OBJ File: 'cubes.blend'
# www.blender.org
v 1.000000 1.000000 0.875000
v -1.000000 -1.000000 0.875000
v -1.000000 1.000000 0.875000
v 1.000000 -1.000000 0.625000
v 1.000000 1.000000 0.625000
v -1.000000 1.000000 0.625000
v -1.000000 -1.000000 0.625000
v 1.000000 -1.000000 0.875000
v 0.875000 -0.875000 0.875000
v 0.875000 0.875000 0.875000
v -0.875000 0.875000 0.875000
v -0.875000 -0.875000 0.875000
v -0.875000 -0.875000 0.625000
v -0.875000 0.875000 0.625000
v 0.875000 0.875000 0.625000
v 0.875000 -0.875000 0.625000
vt 0.750000 0.500000
vt 0.687500 0.000000
vt 0.750000 0.000000
vt 0.625000 0.000000
vt 0.687500 0.500000
vt 0.625000 0.500000
vt 0.625000 0.500000
vt 0.562500 0.000000
vt 0.625000 0.000000
vt 0.812500 0.000000
vt 0.875000 0.437500
vt 0.812500 0.437500
vt 0.031250 0.031250
vt 0.000000 0.500000
vt 0.000000 0.000000
vt 0.468750 0.031250
vt 0.500000 0.000000
vt 0.468750 0.468750
vt 0.500000 0.500000
vt 0.031250 0.468750
vt 0.468750 0.968750
vt 0.500000 0.500000
vt 0.500000 1.000000
vt 0.031250 0.968750
vt 0.000000 1.000000
vt 0.031250 0.531250
vt 0.000000 0.500000
vt 0.468750 0.531250
vt 0.812500 0.875000
vt 0.750000 0.437500
vt 0.812500 0.437500
vt 0.875000 0.875000
vt 0.750000 0.000000
vt 0.812500 0.437500
vt 0.750000 0.437500
vt 0.562500 0.500000
vt 0.562500 0.000000
vt 0.687500 0.500000
vt 0.562500 0.500000
vt 0.875000 0.000000
vt 0.750000 0.875000
vt 0.812500 0.000000
vn 1.0000 0.0000 0.0000
vn 0.0000 -1.0000 0.0000
vn 0.0000 1.0000 0.0000
vn 0.0000 0.0000 1.0000
vn 0.0000 0.0000 -1.0000
vn -1.0000 0.0000 0.0000
s off
f 5/1/1 8/2/1 4/3/1
f 4/4/2 2/5/2 7/6/2
f 6/7/3 1/8/3 5/9/3
f 9/10/3 13/11/3 12/12/3
f 10/13/4 8/14/4 1/15/4
f 11/16/4 1/15/4 3/17/4
f 12/18/4 3/17/4 2/19/4
f 9/20/4 2/19/4 8/14/4
f 14/21/5 7/22/5 6/23/5
f 15/24/5 6/23/5 5/25/5
f 16/26/5 5/25/5 4/27/5
f 13/28/5 4/27/5 7/22/5
f 11/29/2 15/30/2 10/31/2
f 12/12/1 14/32/1 11/29/1
f 10/33/6 16/34/6 9/35/6
f 7/36/6 3/17/6 6/37/6
f 5/1/1 1/38/1 8/2/1
f 4/4/2 8/2/2 2/5/2
f 6/7/3 3/39/3 1/8/3
f 9/10/3 16/40/3 13/11/3
f 10/13/4 9/20/4 8/14/4
f 11/16/4 10/13/4 1/15/4
f 12/18/4 11/16/4 3/17/4
f 9/20/4 12/18/4 2/19/4
f 14/21/5 13/28/5 7/22/5
f 15/24/5 14/21/5 6/23/5
f 16/26/5 15/24/5 5/25/5
f 13/28/5 16/26/5 4/27/5
f 11/29/2 14/41/2 15/30/2
f 12/12/1 13/11/1 14/32/1
f 10/33/6 15/42/6 16/34/6
f 7/36/6 2/19/6 3/17/6
