# Blender v2.79 (sub 0) OBJ File: 'office-lamp.blend'
# www.blender.org
g Cylinder
v 2.507342 0.000000 -6.053259
v -4.798850 72.000000 -11.585448
v -0.765367 4.000000 -1.847759
v -0.765367 61.000000 -1.847759
v 0.765367 4.000000 -1.847759
v 0.765367 61.000000 -1.847759
v 1.847759 4.000000 -0.765367
v 1.847759 61.000000 -0.765367
v 1.847759 4.000000 0.765367
v 1.847759 61.000000 0.765367
v 0.765367 4.000000 1.847759
v 0.765367 61.000000 1.847759
v -0.765367 4.000000 1.847759
v -0.765367 61.000000 1.847759
v -1.847759 4.000000 0.765367
v -1.847759 61.000000 0.765367
v -1.847759 4.000000 -0.765366
v -1.847759 61.000000 -0.765366
v 1.928725 2.000000 -4.656353
v -1.928725 2.000000 -4.656353
v 4.656353 2.000000 -1.928725
v 4.656353 2.000000 1.928725
v 1.928724 2.000000 4.656353
v -1.928725 2.000000 4.656353
v -4.656353 2.000000 1.928725
v -4.656354 2.000000 -1.928724
v -2.507342 0.000000 -6.053259
v 6.053259 0.000000 -2.507342
v 6.053259 0.000000 2.507342
v 2.507342 0.000000 6.053259
v -2.507343 0.000000 6.053259
v -6.053259 0.000000 2.507342
v -6.053260 0.000000 -2.507341
v -4.362591 67.000000 -10.532226
v 4.362590 67.000000 -10.532227
v 10.532226 67.000000 -4.362591
v 10.532227 67.000000 4.362590
v 4.362590 67.000000 10.532226
v -4.362593 67.000000 10.532227
v -10.532226 67.000000 4.362591
v -10.532228 67.000000 -4.362589
v 4.798850 72.000000 -11.585449
v 11.585448 72.000000 -4.798850
v 11.585449 72.000000 4.798850
v 4.798849 72.000000 11.585448
v -4.798852 72.000000 11.585448
v -11.585448 72.000000 4.798850
v -11.585450 72.000000 -4.798848
v 0.000000 69.000000 0.000000
v -1.530734 63.000000 -3.695518
v -1.530734 69.000000 -3.695518
v 1.530734 63.000000 -3.695518
v 1.530734 69.000000 -3.695518
v 3.695518 63.000000 -1.530734
v 3.695518 69.000000 -1.530734
v 3.695518 63.000000 1.530734
v 3.695518 69.000000 1.530734
v 1.530733 63.000000 3.695518
v 1.530733 69.000000 3.695518
v -1.530734 63.000000 3.695518
v -1.530734 69.000000 3.695518
v -3.695518 63.000000 1.530734
v -3.695518 69.000000 1.530734
v -3.695518 63.000000 -1.530733
v -3.695518 69.000000 -1.530733
vt 0.912060 0.831558
vt 0.870308 0.884992
vt 0.888337 0.831558
vt 0.826175 0.896185
vt 0.662589 0.975656
vt 0.662589 0.840437
vt 0.046875 0.906250
vt 0.015625 0.015625
vt 0.046875 0.015625
vt 0.912060 0.796392
vt 0.870308 0.742957
vt 0.930089 0.742957
vt 0.818294 0.017583
vt 0.738823 0.181169
vt 0.794571 0.017583
vt 0.265625 0.906250
vt 0.234375 0.015625
vt 0.265625 0.015625
vt 0.752278 0.346243
vt 0.698843 0.304491
vt 0.752278 0.322520
vt 0.583400 0.712278
vt 0.746987 0.791749
vt 0.583400 0.736001
vt 0.234375 0.906250
vt 0.203125 0.015625
vt 0.838163 0.386765
vt 0.796411 0.333330
vt 0.856192 0.333330
vt 0.548234 0.919908
vt 0.384648 0.840437
vt 0.548234 0.896185
vt 0.203125 0.906250
vt 0.171875 0.015625
vt 0.861341 0.642988
vt 0.914776 0.601236
vt 0.914776 0.661017
vt 0.583400 0.528371
vt 0.746987 0.607842
vt 0.583400 0.552093
vt 0.171875 0.906250
vt 0.140625 0.015625
vt 0.927321 0.295523
vt 0.969074 0.348958
vt 0.909292 0.348958
vt 0.548234 0.736001
vt 0.384648 0.656530
vt 0.548234 0.712278
vt 0.140625 0.906250
vt 0.109375 0.015625
vt 0.575151 0.386765
vt 0.616903 0.333330
vt 0.598874 0.386765
vt 0.305460 0.528371
vt 0.469046 0.607842
vt 0.305460 0.552094
vt 0.109375 0.906250
vt 0.078125 0.015625
vt 0.888337 0.557103
vt 0.930089 0.503668
vt 0.912060 0.557103
vt 0.634387 0.017583
vt 0.554916 0.181169
vt 0.610664 0.017583
vt 0.078125 0.906250
vt 0.900325 0.386765
vt 0.952583 0.669984
vt 0.698843 0.364272
vt 0.661036 0.295523
vt 0.861341 0.705150
vt 0.939057 0.705150
vt 0.861341 0.465861
vt 0.939057 0.465861
vt 0.548155 0.295523
vt 0.625870 0.295523
vt 0.865159 0.295523
vt 0.939057 0.922799
vt 0.861341 0.922799
vt 0.880804 0.260358
vt 0.732062 0.260358
vt 0.690135 0.181169
vt 0.548155 0.260358
vt 0.305460 0.798510
vt 0.305460 0.649769
vt 0.384648 0.975656
vt 0.305460 0.833676
vt 0.583400 0.833676
vt 0.826175 0.649769
vt 0.826175 0.798510
vt 0.746987 0.472622
vt 0.826175 0.614603
vt 0.469046 0.472622
vt 0.548235 0.614603
vt 0.455717 0.373424
vt 0.398445 0.397146
vt 0.398445 0.349701
vt 0.305460 0.397146
vt 0.305460 0.349701
vt 0.431994 0.430695
vt 0.398446 0.017583
vt 0.305460 0.065028
vt 0.305460 0.017583
vt 0.479440 0.430695
vt 0.398446 0.065028
vt 0.305460 0.112474
vt 0.512989 0.397146
vt 0.398445 0.112474
vt 0.305460 0.159919
vt 0.512989 0.349701
vt 0.398446 0.159919
vt 0.305460 0.207365
vt 0.479440 0.316152
vt 0.398445 0.207365
vt 0.305460 0.254810
vt 0.431995 0.316152
vt 0.398445 0.254810
vt 0.305460 0.302256
vt 0.398446 0.302256
vt 0.930089 0.884992
vt 0.826175 0.919908
vt 0.015625 0.906250
vt 0.888337 0.796392
vt 0.874043 0.181169
vt 0.746987 0.656530
vt 0.814440 0.386765
vt 0.861341 0.619265
vt 0.951044 0.295523
vt 0.384648 0.791749
vt 0.557122 0.333330
vt 0.870308 0.503668
vt 0.978041 0.386765
vt 0.952583 0.592269
vt 0.661036 0.373239
vt 0.787444 0.295523
vt 0.696896 0.260357
vt 0.305460 0.982417
vt 0.583400 0.982417
vt 0.826175 0.465861
vt 0.548234 0.465861
vn -0.5801 0.8146 0.0000
vn -0.5684 -0.8227 0.0000
vn 0.0000 0.0000 -1.0000
vn 0.5801 0.8146 0.0000
vn 0.5684 -0.8227 0.0000
vn 0.7071 0.0000 -0.7071
vn -0.4102 0.8146 -0.4102
vn 0.0000 -0.8227 -0.5684
vn 1.0000 0.0000 0.0000
vn -0.4102 0.8146 0.4102
vn -0.4019 -0.8227 0.4019
vn 0.7071 0.0000 0.7071
vn 0.4102 0.8146 -0.4102
vn 0.4019 -0.8227 -0.4019
vn -0.0000 0.0000 1.0000
vn 0.0000 0.8146 -0.5801
vn 0.0000 -0.8227 0.5684
vn -0.7071 0.0000 0.7071
vn -0.0000 0.8146 0.5801
vn -0.4019 -0.8227 -0.4019
vn -1.0000 0.0000 0.0000
vn 0.4102 0.8146 0.4102
vn 0.4019 -0.8227 0.4019
vn -0.7071 0.0000 -0.7071
vn 0.0000 0.5726 -0.8198
vn 0.5797 0.5726 -0.5797
vn -0.5797 0.5726 -0.5797
vn 0.8198 0.5726 0.0000
vn 0.5797 0.5726 0.5797
vn 0.0000 0.5726 0.8198
vn -0.5797 0.5726 0.5797
vn -0.8198 0.5726 0.0000
vn 0.9785 -0.2061 0.0000
vn 0.6919 -0.2061 0.6919
vn 0.0000 -0.2061 0.9785
vn -0.6919 -0.2061 0.6919
vn -0.9785 -0.2061 0.0000
vn 0.0000 -0.2061 -0.9785
vn 0.6919 -0.2061 -0.6919
vn -0.6919 -0.2061 -0.6919
vn 0.0000 1.0000 0.0000
s off
f 17/1/1 25/2/1 15/3/1
f 18/4/2 40/5/2 41/6/2
f 4/7/3 5/8/3 3/9/3
f 7/10/4 22/11/4 21/12/4
f 8/13/5 37/14/5 10/15/5
f 6/16/6 7/17/6 5/18/6
f 3/19/7 26/20/7 17/21/7
f 4/22/8 35/23/8 6/24/8
f 8/25/9 9/26/9 7/17/9
f 13/27/10 25/28/10 24/29/10
f 14/30/11 40/31/11 16/32/11
f 10/33/12 11/34/12 9/26/12
f 5/35/13 21/36/13 19/37/13
f 6/38/14 36/39/14 8/40/14
f 12/41/15 13/42/15 11/34/15
f 3/43/16 19/44/16 20/45/16
f 12/46/17 39/47/17 14/48/17
f 14/49/18 15/50/18 13/42/18
f 13/51/19 23/52/19 11/53/19
f 18/54/20 34/55/20 4/56/20
f 16/57/21 17/58/21 15/50/21
f 11/59/22 22/60/22 9/61/22
f 10/62/23 38/63/23 12/64/23
f 18/65/24 3/9/24 17/58/24
f 19/44/25 27/66/25 20/45/25
f 21/36/26 1/67/26 19/37/26
f 20/68/27 33/69/27 26/20/27
f 21/12/28 29/70/28 28/71/28
f 22/60/29 30/72/29 29/73/29
f 23/52/30 31/74/30 30/75/30
f 25/28/31 31/76/31 24/29/31
f 25/2/32 33/77/32 32/78/32
f 37/14/33 43/79/33 44/80/33
f 37/81/34 45/82/34 38/63/34
f 39/47/35 45/83/35 46/84/35
f 39/85/36 47/86/36 40/31/36
f 40/5/37 48/87/37 41/6/37
f 35/23/38 2/88/38 42/89/38
f 35/90/39 43/91/39 36/39/39
f 41/92/40 2/93/40 34/55/40
f 49/94/41 53/95/41 51/96/41
f 51/96/3 52/97/3 50/98/3
f 49/94/41 55/99/41 53/95/41
f 53/100/6 54/101/6 52/102/6
f 49/94/41 57/103/41 55/99/41
f 55/104/9 56/105/9 54/101/9
f 49/94/41 59/106/41 57/103/41
f 57/107/12 58/108/12 56/105/12
f 49/94/41 61/109/41 59/106/41
f 59/110/15 60/111/15 58/108/15
f 49/94/41 63/112/41 61/109/41
f 61/113/18 62/114/18 60/111/18
f 49/94/41 65/115/41 63/112/41
f 63/116/21 64/117/21 62/114/21
f 49/94/41 51/96/41 65/115/41
f 65/118/24 50/98/24 64/117/24
f 17/1/1 26/119/1 25/2/1
f 18/4/2 16/120/2 40/5/2
f 4/7/3 6/121/3 5/8/3
f 7/10/4 9/122/4 22/11/4
f 8/13/5 36/123/5 37/14/5
f 6/16/6 8/25/6 7/17/6
f 3/19/7 20/68/7 26/20/7
f 4/22/8 34/124/8 35/23/8
f 8/25/9 10/33/9 9/26/9
f 13/27/10 15/125/10 25/28/10
f 14/30/11 39/85/11 40/31/11
f 10/33/12 12/41/12 11/34/12
f 5/35/13 7/126/13 21/36/13
f 6/38/14 35/90/14 36/39/14
f 12/41/15 14/49/15 13/42/15
f 3/43/16 5/127/16 19/44/16
f 12/46/17 38/128/17 39/47/17
f 14/49/18 16/57/18 15/50/18
f 13/51/19 24/129/19 23/52/19
f 18/54/20 41/92/20 34/55/20
f 16/57/21 18/65/21 17/58/21
f 11/59/22 23/130/22 22/60/22
f 10/62/23 37/81/23 38/63/23
f 18/65/24 4/7/24 3/9/24
f 19/44/25 1/131/25 27/66/25
f 21/36/26 28/132/26 1/67/26
f 20/68/27 27/133/27 33/69/27
f 21/12/28 22/11/28 29/70/28
f 22/60/29 23/130/29 30/72/29
f 23/52/30 24/129/30 31/74/30
f 25/28/31 32/134/31 31/76/31
f 25/2/32 26/119/32 33/77/32
f 37/14/33 36/123/33 43/79/33
f 37/81/34 44/135/34 45/82/34
f 39/47/35 38/128/35 45/83/35
f 39/85/36 46/136/36 47/86/36
f 40/5/37 47/137/37 48/87/37
f 35/23/38 34/124/38 2/88/38
f 35/90/39 42/138/39 43/91/39
f 41/92/40 48/139/40 2/93/40
f 51/96/3 53/95/3 52/97/3
f 53/100/6 55/104/6 54/101/6
f 55/104/9 57/107/9 56/105/9
f 57/107/12 59/110/12 58/108/12
f 59/110/15 61/113/15 60/111/15
f 61/113/18 63/116/18 62/114/18
f 63/116/21 65/118/21 64/117/21
f 65/118/24 51/96/24 50/98/24
