# Blender v2.79 (sub 0) OBJ File: 'barricade.blend'
# www.blender.org
g Cube
v -28.000000 26.000000 -4.500000
v -28.000000 26.000000 4.500000
v -30.000000 26.000000 4.500000
v -30.000000 26.000000 -4.500000
v -28.000000 32.000000 -3.000000
v -28.000000 32.000000 3.000000
v -30.000000 32.000000 3.000000
v -30.000000 32.000000 -3.000000
v -28.000000 10.000000 -8.500000
v -28.000000 10.000000 8.500000
v -30.000000 10.000000 -8.500000
v -30.000000 10.000000 8.500000
v -28.000000 4.000000 -10.000000
v -28.000000 4.000000 10.000000
v -30.000000 4.000000 -10.000000
v -30.000000 4.000000 10.000000
v -28.000000 0.000000 -11.000000
v -28.000000 0.000000 11.000000
v -30.000000 0.000000 -11.000000
v -30.000000 0.000000 11.000000
v -28.000000 26.000000 1.500000
v -30.000000 26.000000 1.500000
v -28.000000 10.000000 5.500000
v -30.000000 10.000000 5.500000
v -30.000000 4.000000 7.000000
v -28.000000 0.000000 8.000000
v -30.000000 0.000000 8.000000
v -30.000000 26.000000 -1.500000
v -30.000000 32.000000 0.000000
v -30.000000 10.000000 -5.500000
v -30.000000 0.000000 -8.000000
v -28.000000 26.000000 -1.500000
v -28.000000 32.000000 0.000000
v -28.000000 10.000000 -5.500000
v -28.000000 4.000000 -7.000000
v -28.000000 0.000000 -8.000000
v -28.000000 4.000000 7.000000
v -30.000000 4.000000 -7.000000
v -0.000000 37.107147 -3.706133
v 30.000000 26.000000 -4.500000
v 30.000000 26.000000 4.500000
v 28.000000 26.000000 4.500000
v 28.000000 26.000000 -4.500000
v 30.000000 32.000000 -3.000000
v 30.000000 32.000000 3.000000
v 28.000000 32.000000 3.000000
v 28.000000 32.000000 -3.000000
v 30.000000 10.000000 -8.500000
v 30.000000 10.000000 8.500000
v 28.000000 10.000000 -8.500000
v 28.000000 10.000000 8.500000
v 30.000000 4.000000 -10.000000
v 30.000000 4.000000 10.000000
v 28.000000 4.000000 -10.000000
v 28.000000 4.000000 10.000000
v 30.000000 0.000000 -11.000000
v 30.000000 0.000000 11.000000
v 28.000000 0.000000 -11.000000
v 28.000000 0.000000 11.000000
v 30.000000 26.000000 1.500000
v 28.000000 26.000000 1.500000
v 30.000000 10.000000 5.500000
v 28.000000 10.000000 5.500000
v 28.000000 4.000000 7.000000
v 30.000000 0.000000 8.000000
v 28.000000 0.000000 8.000000
v 28.000000 26.000000 -1.500000
v 28.000000 32.000000 0.000000
v 28.000000 10.000000 -5.500000
v 28.000000 0.000000 -8.000000
v 30.000000 26.000000 -1.500000
v 30.000000 32.000000 0.000000
v 30.000000 10.000000 -5.500000
v 30.000000 4.000000 -7.000000
v 30.000000 0.000000 -8.000000
v 30.000000 4.000000 7.000000
v 28.000000 4.000000 -7.000000
v 58.000000 37.107147 -3.706133
v -34.000000 22.000000 1.000000
v -34.000000 30.000000 1.000000
v -34.000000 22.000000 -1.000000
v -34.000000 30.000000 -1.000000
v 34.000000 22.000000 1.000000
v 34.000000 30.000000 1.000000
v 34.000000 22.000000 -1.000000
v 34.000000 30.000000 -1.000000
v -34.000000 6.000000 1.000000
v -34.000000 14.000000 1.000000
v -34.000000 6.000000 -1.000000
v -34.000000 14.000000 -1.000000
v 34.000000 6.000000 1.000000
v 34.000000 14.000000 1.000000
v 34.000000 6.000000 -1.000000
v 34.000000 14.000000 -1.000000
v 29.000000 34.799999 -1.000000
v 29.000000 34.799999 1.000000
v 30.148050 37.571636 -0.500000
v 30.148050 37.571636 0.500000
v 31.771639 35.948048 -0.500000
v 31.771639 35.948048 0.500000
v 31.771639 33.651947 -0.500000
v 31.771639 33.651947 0.500000
v 30.148050 32.028362 -0.500000
v 30.148050 32.028362 0.500000
v 27.851950 32.028362 -0.500000
v 27.851950 32.028362 0.500000
v 26.228361 33.651951 -0.500000
v 26.228361 33.651951 0.500000
v 26.228361 35.948051 -0.500000
v 26.228361 35.948051 0.500000
v 27.851950 37.571636 -0.500000
v 27.851950 37.571636 0.500000
v -29.000000 34.799999 -1.000000
v -29.000000 34.799999 1.000000
v -27.851952 37.571636 -0.500000
v -27.851952 37.571636 0.500000
v -26.228363 35.948048 -0.500000
v -26.228363 35.948048 0.500000
v -26.228363 33.651947 -0.500000
v -26.228363 33.651947 0.500000
v -27.851952 32.028362 -0.500000
v -27.851952 32.028362 0.500000
v -30.148048 32.028362 -0.500000
v -30.148048 32.028362 0.500000
v -31.771637 33.651951 -0.500000
v -31.771637 33.651951 0.500000
v -31.771637 35.948051 -0.500000
v -31.771637 35.948051 0.500000
v -30.148048 37.571636 -0.500000
v -30.148048 37.571636 0.500000
vt 0.929502 0.399869
vt 0.914007 0.534022
vt 0.914007 0.399869
vt 0.914007 0.325158
vt 0.929501 0.300756
vt 0.929502 0.325158
vt 0.128162 0.336503
vt 0.139821 0.289869
vt 0.151479 0.336503
vt 0.914007 0.250448
vt 0.929501 0.250448
vt 0.105523 0.225624
vt 0.093865 0.272255
vt 0.082207 0.225624
vt 0.914007 0.349561
vt 0.929502 0.349561
vt 0.182568 0.460860
vt 0.170910 0.507494
vt 0.159251 0.460860
vt 0.074435 0.101273
vt 0.929501 0.116295
vt 0.039461 0.054642
vt 0.055005 0.023555
vt 0.062777 0.054642
vt 0.051119 0.101273
vt 0.929502 0.534022
vt 0.914007 0.584330
vt 0.914007 0.116295
vt 0.929501 0.065987
vt 0.929501 0.032449
vt 0.914007 0.008046
vt 0.929501 0.008046
vt 0.929502 0.584330
vt 0.914007 0.617868
vt 0.914007 0.065987
vt 0.194227 0.507494
vt 0.178682 0.538583
vt 0.183242 0.101273
vt 0.171584 0.054642
vt 0.194899 0.054642
vt 0.179356 0.023554
vt 0.202671 0.023554
vt 0.152154 0.225624
vt 0.159926 0.101273
vt 0.883002 0.622486
vt 0.898256 0.709024
vt 0.883002 0.709023
vt 0.062098 0.507494
vt 0.073756 0.460860
vt 0.140496 0.272255
vt 0.128838 0.225624
vt 0.104845 0.336503
vt 0.116504 0.289869
vt 0.093187 0.289869
vt 0.081528 0.336503
vt 0.050439 0.460860
vt 0.038781 0.507494
vt 0.929502 0.642271
vt 0.929502 0.617868
vt 0.054325 0.538583
vt 0.031008 0.538583
vt 0.929502 0.789688
vt 0.914007 0.675809
vt 0.929502 0.675809
vt 0.914007 0.642271
vt 0.117180 0.272255
vt 0.914007 0.823227
vt 0.929502 0.823227
vt 0.898256 0.838770
vt 0.883002 0.838770
vt 0.898256 0.862371
vt 0.883002 0.862371
vt 0.898256 0.992117
vt 0.883002 0.992117
vt 0.992055 0.547962
vt 0.976750 0.682331
vt 0.976750 0.547962
vt 0.976750 0.473131
vt 0.992055 0.448689
vt 0.992055 0.473131
vt 0.293068 0.225122
vt 0.281450 0.271592
vt 0.269833 0.225122
vt 0.976750 0.398301
vt 0.992055 0.398301
vt 0.315967 0.335877
vt 0.327635 0.289205
vt 0.339303 0.335877
vt 0.976750 0.497573
vt 0.992055 0.497573
vt 0.238853 0.101202
vt 0.250470 0.054732
vt 0.262088 0.101202
vt 0.347081 0.460335
vt 0.992055 0.263932
vt 0.382085 0.507007
vt 0.366528 0.538122
vt 0.358749 0.507007
vt 0.370417 0.460335
vt 0.992055 0.682331
vt 0.976750 0.732720
vt 0.976750 0.263932
vt 0.992055 0.213543
vt 0.992055 0.179951
vt 0.976750 0.155510
vt 0.992055 0.155509
vt 0.992055 0.732719
vt 0.976750 0.766312
vt 0.976750 0.213544
vt 0.227235 0.054732
vt 0.242725 0.023752
vt 0.238181 0.460335
vt 0.249849 0.507007
vt 0.226513 0.507007
vt 0.242070 0.538122
vt 0.218734 0.538122
vt 0.269295 0.335877
vt 0.261516 0.460335
vt 0.960794 0.623108
vt 0.945559 0.709516
vt 0.960794 0.709515
vt 0.358900 0.054732
vt 0.347283 0.101202
vt 0.280963 0.289205
vt 0.292631 0.335877
vt 0.316303 0.225122
vt 0.304685 0.271591
vt 0.327920 0.271591
vt 0.339538 0.225122
vt 0.370517 0.101202
vt 0.382135 0.054732
vt 0.992055 0.790754
vt 0.992055 0.766312
vt 0.366645 0.023752
vt 0.389880 0.023752
vt 0.992055 0.121916
vt 0.976750 0.007855
vt 0.992055 0.007854
vt 0.976750 0.824346
vt 0.976750 0.790754
vt 0.304299 0.289205
vt 0.945559 0.839065
vt 0.960794 0.839065
vt 0.945559 0.862630
vt 0.960794 0.862630
vt 0.945559 0.992180
vt 0.960794 0.992181
vt 0.023438 0.992188
vt 0.007812 0.929688
vt 0.023438 0.929688
vt 0.023438 0.851562
vt 0.554688 0.914062
vt 0.023438 0.914062
vt 0.570312 0.992188
vt 0.554688 0.929688
vt 0.570312 0.929688
vt 0.554688 0.992188
vt 0.554688 0.835938
vt 0.554688 0.851562
vt 0.023438 0.820312
vt 0.007812 0.757812
vt 0.023438 0.757812
vt 0.023438 0.679688
vt 0.554688 0.742188
vt 0.023438 0.742188
vt 0.570312 0.820312
vt 0.554688 0.757812
vt 0.570312 0.757812
vt 0.554688 0.820312
vt 0.554688 0.664062
vt 0.554688 0.679688
vt 0.773602 0.726770
vt 0.764356 0.749089
vt 0.751282 0.736015
vt 0.711062 0.726329
vt 0.733199 0.735498
vt 0.720231 0.748466
vt 0.812500 0.656250
vt 0.820312 0.632812
vt 0.820312 0.656250
vt 0.751282 0.717524
vt 0.733199 0.717159
vt 0.812500 0.632812
vt 0.820312 0.609375
vt 0.764356 0.704450
vt 0.720231 0.704191
vt 0.812500 0.609375
vt 0.820312 0.585938
vt 0.782847 0.704450
vt 0.701892 0.704191
vt 0.812500 0.585938
vt 0.820312 0.562500
vt 0.795921 0.717524
vt 0.688924 0.717159
vt 0.812500 0.750000
vt 0.820312 0.726562
vt 0.820312 0.750000
vt 0.795921 0.736015
vt 0.688924 0.735498
vt 0.812500 0.726562
vt 0.820312 0.703125
vt 0.782847 0.749089
vt 0.701892 0.748466
vt 0.812500 0.703125
vt 0.820312 0.679688
vt 0.812500 0.679688
vt 0.773639 0.937683
vt 0.764452 0.959864
vt 0.751458 0.946871
vt 0.710925 0.937528
vt 0.733459 0.946862
vt 0.720259 0.960062
vt 0.812500 0.890625
vt 0.820312 0.914062
vt 0.820312 0.890625
vt 0.751458 0.928495
vt 0.733459 0.928194
vt 0.812500 0.914062
vt 0.820312 0.937500
vt 0.764452 0.915502
vt 0.720259 0.914994
vt 0.812500 0.937500
vt 0.820312 0.960938
vt 0.782827 0.915502
vt 0.701591 0.914994
vt 0.812500 0.773438
vt 0.820312 0.796875
vt 0.820312 0.773438
vt 0.795820 0.928495
vt 0.688391 0.928194
vt 0.812500 0.796875
vt 0.820312 0.820312
vt 0.795820 0.946871
vt 0.688391 0.946862
vt 0.812500 0.820312
vt 0.820312 0.843750
vt 0.782827 0.959864
vt 0.701591 0.960062
vt 0.812500 0.843750
vt 0.820312 0.867188
vt 0.812500 0.867188
vt 0.914007 0.300756
vt 0.031690 0.023555
vt 0.914007 0.032449
vt 0.201999 0.538583
vt 0.898256 0.622487
vt 0.914007 0.789688
vt 0.976750 0.448689
vt 0.389864 0.538122
vt 0.976750 0.179952
vt 0.219490 0.023752
vt 0.945559 0.623109
vt 0.976750 0.121918
vt 0.992055 0.824346
vt 0.007812 0.992188
vt 0.023438 0.835938
vt 0.007812 0.820312
vt 0.023438 0.664062
vt 0.812500 0.562500
vt 0.812500 0.960938
vn 0.0000 0.2425 -0.9701
vn 0.0000 1.0000 0.0000
vn 1.0000 0.0000 0.0000
vn 0.0000 0.2425 0.9701
vn -1.0000 0.0000 0.0000
vn 0.0000 -1.0000 0.0000
vn 0.0000 -0.2425 0.9701
vn 0.0000 -0.2425 -0.9701
vn 0.0000 0.0000 -1.0000
vn 0.0000 0.0000 1.0000
vn 0.1255 0.1255 -0.9841
vn 0.1255 0.1255 0.9841
vn 0.7071 0.7071 0.0000
vn 0.1775 -0.0000 -0.9841
vn 0.1775 0.0000 0.9841
vn 0.1255 -0.1255 -0.9841
vn 0.1255 -0.1255 0.9841
vn 0.7071 -0.7071 0.0000
vn 0.0000 -0.1775 -0.9841
vn 0.0000 -0.1775 0.9841
vn -0.1255 -0.1255 -0.9841
vn -0.1255 -0.1255 0.9841
vn -0.7071 -0.7071 0.0000
vn -0.1775 -0.0000 -0.9841
vn -0.1775 -0.0000 0.9841
vn -0.1255 0.1255 -0.9841
vn -0.1255 0.1255 0.9841
vn -0.7071 0.7071 0.0000
vn 0.0000 0.1775 -0.9841
vn 0.0000 0.1775 0.9841
s off
f 1/1/1 11/2/1 4/3/1
f 29/4/2 6/5/2 33/6/2
f 21/7/3 6/8/3 2/9/3
f 6/5/4 3/10/4 2/11/4
f 28/12/5 8/13/5 4/14/5
f 1/1/1 8/15/1 5/16/1
f 10/17/3 37/18/3 23/19/3
f 2/9/3 23/19/3 21/7/3
f 4/14/5 30/20/5 28/12/5
f 3/10/4 10/21/4 2/11/4
f 15/22/5 31/23/5 38/24/5
f 11/25/5 38/24/5 30/20/5
f 9/26/1 15/27/1 11/2/1
f 12/28/4 14/29/4 10/21/4
f 18/30/6 27/31/6 26/32/6
f 13/33/1 19/34/1 15/27/1
f 16/35/4 18/30/4 14/29/4
f 14/36/3 26/37/3 37/18/3
f 12/38/5 25/39/5 16/40/5
f 16/40/5 27/41/5 20/42/5
f 3/43/5 24/44/5 12/38/5
f 34/45/2 24/46/2 23/47/2
f 23/19/3 35/48/3 34/49/3
f 7/50/5 22/51/5 3/43/5
f 32/52/3 33/53/3 21/7/3
f 8/15/2 33/6/2 5/16/2
f 5/54/3 32/52/3 1/55/3
f 9/56/3 35/48/3 13/57/3
f 1/55/3 34/49/3 9/56/3
f 36/58/6 19/34/6 17/59/6
f 13/57/3 36/60/3 17/61/3
f 30/20/5 25/39/5 24/44/5
f 37/62/6 38/63/6 35/64/6
f 36/58/7 38/63/7 31/65/7
f 22/51/5 29/66/5 28/12/5
f 27/67/8 37/62/8 26/68/8
f 23/47/8 22/69/8 21/70/8
f 21/70/6 28/71/6 32/72/6
f 32/72/7 30/73/7 34/74/7
f 40/75/1 50/76/1 43/77/1
f 68/78/2 45/79/2 72/80/2
f 60/81/3 45/82/3 41/83/3
f 45/79/4 42/84/4 41/85/4
f 67/86/5 47/87/5 43/88/5
f 40/75/1 47/89/1 44/90/1
f 49/91/3 76/92/3 62/93/3
f 41/83/3 62/93/3 60/81/3
f 43/88/5 69/94/5 67/86/5
f 42/84/4 49/95/4 41/85/4
f 54/96/5 70/97/5 77/98/5
f 50/99/5 77/98/5 69/94/5
f 48/100/1 54/101/1 50/76/1
f 51/102/4 53/103/4 49/95/4
f 57/104/6 66/105/6 65/106/6
f 52/107/1 58/108/1 54/101/1
f 55/109/4 57/104/4 53/103/4
f 53/110/3 65/111/3 76/92/3
f 51/112/5 64/113/5 55/114/5
f 55/114/5 66/115/5 59/116/5
f 42/117/5 63/118/5 51/112/5
f 73/119/2 63/120/2 62/121/2
f 62/93/3 74/122/3 73/123/3
f 46/124/5 61/125/5 42/117/5
f 71/126/3 72/127/3 60/81/3
f 47/89/2 72/80/2 44/90/2
f 44/128/3 71/126/3 40/129/3
f 48/130/3 74/122/3 52/131/3
f 40/129/3 73/123/3 48/130/3
f 75/132/6 58/108/6 56/133/6
f 52/131/3 75/134/3 56/135/3
f 69/94/5 64/113/5 63/118/5
f 76/136/6 77/137/6 74/138/6
f 75/132/7 77/139/7 70/140/7
f 61/125/5 68/141/5 67/86/5
f 66/105/8 76/136/8 65/106/8
f 62/121/8 61/142/8 60/143/8
f 60/143/6 67/144/6 71/145/6
f 71/145/7 69/146/7 73/147/7
f 80/148/5 81/149/5 79/150/5
f 82/151/9 85/152/9 81/153/9
f 86/154/3 83/155/3 85/156/3
f 84/157/10 79/150/10 83/155/10
f 85/152/6 79/150/6 81/153/6
f 82/151/2 84/158/2 86/159/2
f 88/160/5 89/161/5 87/162/5
f 90/163/9 93/164/9 89/165/9
f 94/166/3 91/167/3 93/168/3
f 92/169/10 87/162/10 91/167/10
f 93/164/6 87/162/6 89/165/6
f 90/163/2 92/170/2 94/171/2
f 95/172/11 97/173/11 99/174/11
f 96/175/12 100/176/12 98/177/12
f 98/178/13 99/179/13 97/180/13
f 95/172/14 99/174/14 101/181/14
f 96/175/15 102/182/15 100/176/15
f 100/183/3 101/184/3 99/179/3
f 95/172/16 101/181/16 103/185/16
f 96/175/17 104/186/17 102/182/17
f 102/187/18 103/188/18 101/184/18
f 95/172/19 103/185/19 105/189/19
f 96/175/20 106/190/20 104/186/20
f 104/191/6 105/192/6 103/188/6
f 95/172/21 105/189/21 107/193/21
f 96/175/22 108/194/22 106/190/22
f 106/195/23 107/196/23 105/197/23
f 95/172/24 107/193/24 109/198/24
f 96/175/25 110/199/25 108/194/25
f 108/200/5 109/201/5 107/196/5
f 95/172/26 109/198/26 111/202/26
f 96/175/27 112/203/27 110/199/27
f 110/204/28 111/205/28 109/201/28
f 95/172/29 111/202/29 97/173/29
f 96/175/30 98/177/30 112/203/30
f 112/206/2 97/180/2 111/205/2
f 113/207/11 115/208/11 117/209/11
f 114/210/12 118/211/12 116/212/12
f 116/213/13 117/214/13 115/215/13
f 113/207/14 117/209/14 119/216/14
f 114/210/15 120/217/15 118/211/15
f 118/218/3 119/219/3 117/214/3
f 113/207/16 119/216/16 121/220/16
f 114/210/17 122/221/17 120/217/17
f 120/222/18 121/223/18 119/219/18
f 113/207/19 121/220/19 123/224/19
f 114/210/20 124/225/20 122/221/20
f 122/226/6 123/227/6 121/228/6
f 113/207/21 123/224/21 125/229/21
f 114/210/22 126/230/22 124/225/22
f 124/231/23 125/232/23 123/227/23
f 113/207/24 125/229/24 127/233/24
f 114/210/25 128/234/25 126/230/25
f 126/235/5 127/236/5 125/232/5
f 113/207/26 127/233/26 129/237/26
f 114/210/27 130/238/27 128/234/27
f 128/239/28 129/240/28 127/236/28
f 113/207/29 129/237/29 115/208/29
f 114/210/30 116/212/30 130/238/30
f 130/241/2 115/215/2 129/240/2
f 1/1/1 9/26/1 11/2/1
f 29/4/2 7/242/2 6/5/2
f 21/7/3 33/53/3 6/8/3
f 6/5/4 7/242/4 3/10/4
f 28/12/5 29/66/5 8/13/5
f 1/1/1 4/3/1 8/15/1
f 10/17/3 14/36/3 37/18/3
f 2/9/3 10/17/3 23/19/3
f 4/14/5 11/25/5 30/20/5
f 3/10/4 12/28/4 10/21/4
f 15/22/5 19/243/5 31/23/5
f 11/25/5 15/22/5 38/24/5
f 9/26/1 13/33/1 15/27/1
f 12/28/4 16/35/4 14/29/4
f 18/30/6 20/244/6 27/31/6
f 13/33/1 17/59/1 19/34/1
f 16/35/4 20/244/4 18/30/4
f 14/36/3 18/245/3 26/37/3
f 12/38/5 24/44/5 25/39/5
f 16/40/5 25/39/5 27/41/5
f 3/43/5 22/51/5 24/44/5
f 34/45/2 30/246/2 24/46/2
f 23/19/3 37/18/3 35/48/3
f 7/50/5 29/66/5 22/51/5
f 8/15/2 29/4/2 33/6/2
f 5/54/3 33/53/3 32/52/3
f 9/56/3 34/49/3 35/48/3
f 1/55/3 32/52/3 34/49/3
f 36/58/6 31/65/6 19/34/6
f 13/57/3 35/48/3 36/60/3
f 30/20/5 38/24/5 25/39/5
f 37/62/6 25/247/6 38/63/6
f 36/58/7 35/64/7 38/63/7
f 27/67/8 25/247/8 37/62/8
f 23/47/8 24/46/8 22/69/8
f 21/70/6 22/69/6 28/71/6
f 32/72/7 28/71/7 30/73/7
f 40/75/1 48/100/1 50/76/1
f 68/78/2 46/248/2 45/79/2
f 60/81/3 72/127/3 45/82/3
f 45/79/4 46/248/4 42/84/4
f 67/86/5 68/141/5 47/87/5
f 40/75/1 43/77/1 47/89/1
f 49/91/3 53/110/3 76/92/3
f 41/83/3 49/91/3 62/93/3
f 43/88/5 50/99/5 69/94/5
f 42/84/4 51/102/4 49/95/4
f 54/96/5 58/249/5 70/97/5
f 50/99/5 54/96/5 77/98/5
f 48/100/1 52/107/1 54/101/1
f 51/102/4 55/109/4 53/103/4
f 57/104/6 59/250/6 66/105/6
f 52/107/1 56/133/1 58/108/1
f 55/109/4 59/250/4 57/104/4
f 53/110/3 57/251/3 65/111/3
f 51/112/5 63/118/5 64/113/5
f 55/114/5 64/113/5 66/115/5
f 42/117/5 61/125/5 63/118/5
f 73/119/2 69/252/2 63/120/2
f 62/93/3 76/92/3 74/122/3
f 46/124/5 68/141/5 61/125/5
f 47/89/2 68/78/2 72/80/2
f 44/128/3 72/127/3 71/126/3
f 48/130/3 73/123/3 74/122/3
f 40/129/3 71/126/3 73/123/3
f 75/132/6 70/140/6 58/108/6
f 52/131/3 74/122/3 75/134/3
f 69/94/5 77/98/5 64/113/5
f 76/136/6 64/253/6 77/137/6
f 75/132/7 74/254/7 77/139/7
f 66/105/8 64/253/8 76/136/8
f 62/121/8 63/120/8 61/142/8
f 60/143/6 61/142/6 67/144/6
f 71/145/7 67/144/7 69/146/7
f 80/148/5 82/255/5 81/149/5
f 82/151/9 86/159/9 85/152/9
f 86/154/3 84/157/3 83/155/3
f 84/157/10 80/148/10 79/150/10
f 85/152/6 83/155/6 79/150/6
f 82/151/2 80/256/2 84/158/2
f 88/160/5 90/257/5 89/161/5
f 90/163/9 94/171/9 93/164/9
f 94/166/3 92/169/3 91/167/3
f 92/169/10 88/160/10 87/162/10
f 93/164/6 91/167/6 87/162/6
f 90/163/2 88/258/2 92/170/2
f 98/178/13 100/183/13 99/179/13
f 100/183/3 102/187/3 101/184/3
f 102/187/18 104/191/18 103/188/18
f 104/191/6 106/259/6 105/192/6
f 106/195/23 108/200/23 107/196/23
f 108/200/5 110/204/5 109/201/5
f 110/204/28 112/206/28 111/205/28
f 112/206/2 98/178/2 97/180/2
f 116/213/13 118/218/13 117/214/13
f 118/218/3 120/222/3 119/219/3
f 120/222/18 122/260/18 121/223/18
f 122/226/6 124/231/6 123/227/6
f 124/231/23 126/235/23 125/232/23
f 126/235/5 128/239/5 127/236/5
f 128/239/28 130/241/28 129/240/28
f 130/241/2 116/213/2 115/215/2
