# Blender v2.79 (sub 0) OBJ File: 'tree.blend'
# www.blender.org
g Shrub_Icosphere.004
v 39.898003 75.250999 21.196978
v -7.458248 99.117592 6.631884
v -23.398094 77.392067 -41.308159
v 29.956791 86.613342 -31.684540
v -31.125488 29.343029 69.796951
v 16.012562 40.722160 70.615639
v -15.381966 69.123222 46.953434
v -34.631882 36.354675 -64.619789
v 19.678879 48.917755 -60.710457
v 47.299347 25.026031 -63.864555
v 57.107792 30.541483 -30.517208
v 34.271156 52.400444 -45.988197
v -49.720963 65.796448 14.734419
v -58.617508 35.253284 43.076073
v -80.733604 37.696228 6.742142
v -65.334984 8.356739 -20.042334
v 57.315357 49.298492 -22.822939
v 62.037003 57.567963 19.954239
v 78.666077 20.842968 2.769880
v 58.331535 19.626486 41.572060
v 47.574684 8.792271 -27.791233
v 48.874981 33.957546 -25.291101
v -47.124031 51.272957 -18.311909
v -49.361519 44.385479 -24.946589
v 11.144306 20.924295 -61.404045
v 16.132143 37.284443 -60.998695
v 11.382471 4.383327 -56.606770
v -49.190216 12.327230 -23.452522
v 26.317631 0.086964 25.864817
v -39.432434 14.892111 40.219254
v -42.980331 37.022255 39.872101
v 38.288609 13.479933 38.526443
v 26.728134 47.960911 38.729866
v -39.814125 48.079628 31.449789
v 45.671600 49.788059 -20.088266
v 45.706738 59.353901 4.226791
v 1.328014 62.978718 -46.166451
v 28.581348 49.337601 -40.124847
v -22.783939 65.564011 -40.827671
v -37.873184 60.040737 14.077450
v -22.498348 59.520512 29.259939
v -7.338139 66.074631 37.626122
v -45.679680 60.887794 4.091990
v 27.565586 58.691010 28.018906
v 36.208626 54.899918 24.235956
v -39.702805 53.916172 -10.983707
v -32.308998 64.647980 -24.713287
v 5.874035 64.141762 37.254082
v -28.535530 53.440979 22.091536
v -68.132782 -0.000004 21.374012
v -52.487442 -0.000006 -12.008450
v -41.147758 -0.000002 -11.801056
v -42.362457 -0.000004 -39.227760
v -46.292610 -0.000008 -29.085190
v -36.566032 0.000008 41.796455
v -2.861042 0.000008 65.084602
v 3.891731 0.000004 64.967354
v 12.531099 0.000008 56.917694
v -0.817711 0.000015 -62.320396
v 4.764961 -0.000004 -61.922485
v 7.446173 -0.000002 -59.278847
v 13.252155 0.000006 -49.063438
v 22.765270 0.000000 -63.794823
v 45.157715 0.000010 24.625044
v 53.992569 0.000015 23.369640
v 61.359482 0.000015 8.709544
v 49.151226 0.000008 -10.973469
v 31.282394 0.000006 -21.385759
v 50.055679 0.000011 -41.082081
vt 0.111123 0.318778
vt 0.030524 0.294865
vt 0.012255 0.168751
vt 0.208441 0.092571
vt 0.176148 0.302561
vt 0.079198 0.000000
vt 0.161696 0.645307
vt 0.121067 0.480938
vt 0.271884 0.577749
vt 0.011492 0.609894
vt 0.000000 0.589194
vt 0.381931 0.903287
vt 0.301484 0.761057
vt 0.381931 0.727185
vt 0.124148 0.745008
vt 0.067643 0.755539
vt 0.751709 0.558255
vt 0.785000 0.397935
vt 0.900794 0.461270
vt 0.395045 0.360935
vt 0.295361 0.238705
vt 0.366235 0.179469
vt 0.877427 0.566272
vt 0.914234 0.594214
vt 0.320428 0.194672
vt 0.593947 0.535500
vt 0.499704 0.573983
vt 0.450386 0.521008
vt 0.520699 0.385943
vt 0.679621 0.474921
vt 0.652122 0.214236
vt 0.729558 0.263864
vt 0.581336 0.385943
vt 0.869047 0.917172
vt 1.000000 0.786643
vt 1.000000 0.962697
vt 0.647077 0.080199
vt 0.590482 0.192087
vt 0.532419 0.107312
vt 0.837956 0.847593
vt 0.740473 0.776321
vt 0.816888 0.717289
vt 0.308303 0.669881
vt 0.271884 0.628769
vt 0.363088 0.591358
vt 0.740473 0.741761
vt 0.597168 0.709325
vt 0.734531 0.632397
vt 0.312422 0.593303
vt 0.339541 0.555740
vt 0.227626 0.768989
vt 0.271884 0.898237
vt 0.120301 0.889483
vt 0.734376 0.481440
vt 0.962726 0.532245
vt 0.914234 0.419402
vt 0.962726 0.385943
vt 0.539391 0.917771
vt 0.580072 0.788906
vt 0.680475 0.917771
vt 0.000000 0.327905
vt 0.135037 0.398147
vt 0.053783 0.480938
vt 0.869047 0.847593
vt 0.869047 0.992834
vt 0.728395 0.928240
vt 0.600483 0.036816
vt 0.537055 0.041024
vt 0.543028 0.000000
vt 0.197459 0.327925
vt 0.265532 0.332226
vt 0.884601 0.109528
vt 0.884601 0.260947
vt 0.752078 0.213547
vt 0.793301 0.020113
vt 0.841573 0.000000
vt 0.223177 0.480938
vt 0.736507 0.110971
vt 0.784807 0.070447
vt 0.869047 0.695811
vt 0.997342 0.594214
vt 0.941763 0.723051
vt 0.495597 0.804860
vt 0.499329 0.896167
vt 0.442091 0.920612
vt 0.714175 0.211998
vt 0.730957 0.242564
vt 0.207006 0.723614
vt 0.584507 0.663565
vt 0.420223 0.543708
vt 0.306152 0.885560
vt 0.294949 0.809996
vt 0.955283 0.298228
vt 0.955283 0.383570
vt 0.884601 0.324536
vt 0.912295 0.100373
vt 0.884601 0.034356
vt 0.992804 0.000000
vt 0.482797 0.228998
vt 0.395045 0.103786
vt 0.540700 0.123777
vt 0.963767 0.159771
vt 0.916097 0.142188
vt 0.395045 0.741761
vt 0.464496 0.313957
vt 0.419030 0.314483
vt 0.869047 0.594214
vt 0.847683 0.712230
vt 0.791495 0.654372
vt 0.566006 0.598651
vt 0.580230 0.570824
vt 0.305244 0.505280
vt 0.327121 0.480938
vt 0.946891 0.268278
vt 0.940248 0.192220
vt 0.225364 0.300795
vt 0.672032 0.396601
vt 0.546652 0.176337
vt 0.363088 0.727185
vt 0.307666 0.712158
vt 0.603562 0.741761
vt 0.646124 0.779539
vt 0.539391 0.741761
vt 0.363088 0.482426
vt 0.395032 0.480938
vt 0.395032 0.549295
vt 0.728667 0.741761
vt 0.728667 0.814969
vt 0.680475 0.768692
vt 0.342999 0.927982
vt 0.271884 0.864900
vt 0.992804 0.192220
vt 0.869047 0.823256
vt 0.395045 0.841787
vt 0.539391 0.957205
vt 0.736507 0.176817
vt 0.736507 0.053423
vt 0.903326 0.786643
vt 0.932633 0.786073
vt 0.843966 0.312733
vt 0.797835 0.302595
vt 0.843966 0.260947
vt 0.797835 0.340263
vt 0.736507 0.311419
vt 0.766807 0.295162
vt 0.997342 0.785862
vt 0.729049 0.198811
vt 0.730822 0.230059
vt 0.797835 0.260947
vt 0.914234 0.385943
vt 0.740473 0.394331
vt 0.696531 0.430679
vt 0.674091 0.753242
vn 0.9259 0.3512 -0.1395
vn 0.4187 0.9008 0.1149
vn -0.0890 0.9180 -0.3864
vn -0.1436 0.5349 0.8326
vn 0.0172 -0.1424 0.9897
vn -0.7303 0.5338 0.4263
vn -0.9321 -0.1442 0.3322
vn -0.4701 -0.5621 0.6804
vn 0.6522 -0.2912 0.6999
vn 0.3920 0.8047 0.4458
vn 0.8838 0.2942 0.3638
vn 0.1363 0.9704 -0.1996
vn -0.7047 0.5975 -0.3826
vn -0.9386 -0.0211 -0.3442
vn 0.0711 0.0030 -0.9975
vn -0.4333 -0.4523 -0.7795
vn 0.1602 0.5920 -0.7898
vn 0.7591 0.5685 -0.3173
vn 0.1974 0.7289 0.6555
vn -0.6619 0.6043 0.4435
vn 0.4122 0.8767 -0.2479
vn -0.5575 0.7285 -0.3981
vn -0.8536 -0.0859 0.5138
vn -0.7156 0.2274 -0.6605
vn -0.1954 -0.0467 -0.9796
vn -0.9228 -0.3609 -0.1352
vn 0.8591 0.4765 -0.1869
vn 0.3068 0.9276 -0.2132
vn 0.7153 -0.0870 -0.6934
vn -0.2097 0.2667 -0.9407
vn -0.0244 0.9078 0.4187
vn 0.8693 0.1778 0.4611
vn 0.6456 -0.6502 -0.4005
vn 0.3233 0.4444 0.8354
vn 0.7615 -0.5232 0.3826
vn -0.1347 -0.0510 0.9896
vn 0.8637 -0.3309 0.3801
vn 0.6889 -0.1927 -0.6987
vn 0.1954 0.0467 0.9796
vn -0.9073 0.1036 -0.4076
vn 0.1198 0.6794 0.7239
vn -0.5573 0.8029 -0.2116
vn 0.9073 -0.1036 0.4076
vn -0.5726 0.5598 0.5990
vn 0.3062 0.1995 -0.9308
vn -0.6985 -0.1350 0.7027
vn -0.7016 0.7072 -0.0872
vn -0.0966 0.6519 -0.7522
vn -0.2211 -0.0510 -0.9739
vn 0.4754 0.8511 -0.2229
vn -0.5664 0.7691 0.2962
vn -0.3575 0.9240 0.1358
vn 0.0661 0.9154 -0.3971
vn 0.4061 0.0728 0.9109
vn 0.2641 0.7256 0.6354
vn 0.9054 0.4169 -0.0806
vn 0.5265 0.5797 0.6219
vn -0.9311 -0.0540 -0.3608
vn -0.0134 0.6822 0.7310
vn 0.0988 0.5849 0.8051
vn 0.4365 0.8745 0.2115
vn 0.0134 -0.6822 -0.7310
vn -0.0468 0.9296 -0.3656
vn 0.7557 -0.2557 0.6029
vn -0.3928 0.3527 -0.8493
vn -0.0706 0.9803 0.1847
vn 0.2714 -0.8423 -0.4658
vn -0.8574 -0.0653 -0.5105
vn -0.1525 0.8930 -0.4234
vn -0.6165 0.5811 0.5313
vn 0.0840 0.4447 -0.8917
vn 0.7102 0.3453 -0.6135
vn 0.7542 0.1184 -0.6459
vn 0.7190 -0.2028 -0.6647
vn -0.7833 0.5441 -0.3007
vn 0.4218 0.0587 0.9048
vn 0.4866 0.8473 0.2128
vn 0.9567 -0.1311 -0.2597
vn 0.5546 -0.6426 0.5286
vn -0.0669 0.0628 -0.9958
vn 0.5414 -0.5326 -0.6505
vn 0.1020 -0.6885 0.7180
vn -0.9030 -0.3351 0.2688
vn -0.5431 -0.0156 0.8395
vn -0.5142 -0.7908 -0.3321
vn 0.0432 -0.7065 0.7064
vn -0.1033 0.0561 -0.9931
vn 0.7839 -0.4324 -0.4455
vn -0.4397 -0.8742 -0.2061
vn -0.5820 -0.2342 -0.7787
vn 0.5862 -0.7680 0.2581
vn -0.3298 -0.4288 0.8411
s off
f 36/1/1 35/2/1 4/3/1
f 2/4/2 1/5/2 4/3/2
f 3/6/3 2/4/3 4/3/3
f 5/7/4 6/8/4 7/9/4
f 6/8/5 56/10/5 57/11/5
f 7/12/6 31/13/6 5/14/6
f 5/7/7 30/15/7 55/16/7
f 5/7/8 55/16/8 56/10/8
f 6/17/9 58/18/9 32/19/9
f 6/20/10 48/21/10 7/22/10
f 6/17/11 33/23/11 44/24/11
f 7/22/12 48/21/12 42/25/12
f 24/26/13 47/27/13 39/28/13
f 8/29/14 28/30/14 24/26/14
f 25/31/15 59/32/15 8/33/15
f 8/34/16 59/35/16 53/36/16
f 10/37/17 26/38/17 12/39/17
f 11/40/18 10/41/18 12/42/18
f 34/43/19 49/44/19 13/45/19
f 14/46/20 13/47/20 15/48/20
f 13/45/21 40/49/21 43/50/21
f 13/47/22 24/26/22 15/48/22
f 14/51/23 15/52/23 50/53/23
f 15/48/24 24/26/24 16/54/24
f 24/55/25 28/56/25 16/57/25
f 15/58/26 16/59/26 50/60/26
f 17/61/27 18/62/27 19/63/27
f 17/61/28 36/1/28 18/62/28
f 17/64/29 19/65/29 21/66/29
f 22/67/30 35/68/30 17/69/30
f 18/62/31 45/70/31 33/71/31
f 19/72/32 18/73/32 20/74/32
f 19/72/33 67/75/33 21/76/33
f 18/62/34 33/71/34 20/77/34
f 19/72/35 65/78/35 66/79/35
f 20/80/36 33/81/36 32/82/36
f 11/83/37 21/84/37 69/85/37
f 27/86/38 60/87/38 25/31/38
f 30/15/39 31/88/39 14/51/39
f 47/27/40 43/89/40 3/90/40
f 48/21/41 2/4/41 42/25/41
f 41/91/42 34/92/42 7/12/42
f 45/93/43 36/94/43 1/95/43
f 41/96/44 42/97/44 2/98/44
f 37/99/45 4/100/45 38/101/45
f 40/102/46 49/103/46 41/96/46
f 43/89/47 2/104/47 3/90/47
f 37/99/48 8/33/48 39/105/48
f 37/99/49 39/105/49 3/106/49
f 37/107/50 38/108/50 9/109/50
f 46/110/51 47/27/51 23/111/51
f 12/42/52 9/109/52 38/108/52
f 43/50/53 46/112/53 23/113/53
f 44/114/54 1/95/54 48/115/54
f 38/108/55 11/40/55 12/42/55
f 4/3/56 1/5/56 36/1/56
f 7/12/6 34/92/6 31/13/6
f 5/7/7 31/88/7 30/15/7
f 6/20/10 44/116/10 48/21/10
f 6/17/11 32/19/11 33/23/11
f 33/71/57 45/70/57 44/116/57
f 39/28/13 8/29/13 24/26/13
f 24/26/13 23/111/13 47/27/13
f 53/117/58 28/30/58 8/29/58
f 8/33/15 9/118/15 26/38/15
f 26/38/15 25/31/15 8/33/15
f 13/45/59 14/119/59 34/43/59
f 14/119/60 31/120/60 34/43/60
f 13/45/61 49/44/61 40/49/61
f 28/121/62 51/122/62 16/59/62
f 17/61/63 35/2/63 36/1/63
f 17/123/64 21/84/64 11/83/64
f 11/124/65 22/125/65 17/126/65
f 18/62/66 36/1/66 45/70/66
f 21/127/67 67/128/67 68/129/67
f 3/90/68 39/28/68 47/27/68
f 47/27/40 46/110/40 43/89/40
f 48/21/41 1/5/41 2/4/41
f 7/12/69 42/130/69 41/91/69
f 41/91/42 49/131/42 34/92/42
f 2/98/70 43/132/70 40/102/70
f 40/102/44 41/96/44 2/98/44
f 37/99/71 3/106/71 4/100/71
f 37/99/48 9/118/48 8/33/48
f 35/68/72 22/67/72 38/101/72
f 35/68/73 38/101/73 4/100/73
f 12/39/74 26/38/74 9/118/74
f 24/26/75 13/47/75 23/111/75
f 13/45/53 43/50/53 23/113/53
f 44/114/76 45/93/76 1/95/76
f 38/108/77 22/133/77 11/40/77
f 69/85/78 10/134/78 11/83/78
f 68/135/79 69/85/79 21/84/79
f 63/136/80 26/38/80 10/37/80
f 69/137/81 63/136/81 10/37/81
f 65/138/82 32/82/82 64/139/82
f 54/140/83 52/141/83 28/142/83
f 50/53/84 55/16/84 30/15/84
f 63/143/85 62/144/85 27/145/85
f 29/146/86 64/139/86 32/82/86
f 63/136/87 25/31/87 26/38/87
f 62/147/88 61/148/88 27/86/88
f 51/122/89 50/60/89 16/59/89
f 63/143/90 27/145/90 25/149/90
f 58/18/91 29/150/91 32/19/91
f 50/53/92 30/15/92 14/51/92
f 6/8/5 5/7/5 56/10/5
f 6/17/9 57/151/9 58/18/9
f 25/31/15 60/87/15 59/32/15
f 19/72/33 66/79/33 67/75/33
f 19/72/35 20/74/35 65/78/35
f 27/86/38 61/148/38 60/87/38
f 53/117/58 54/152/58 28/30/58
f 28/121/62 52/153/62 51/122/62
f 65/138/82 20/80/82 32/82/82
