# Blender v2.79 (sub 0) OBJ File: 'Pawnshop.blend'
# www.blender.org
v 3.937500 0.000000 -0.125000
v 3.062500 0.937500 -0.125000
v 3.062500 0.187500 0.000000
v 3.062500 0.000000 -0.125000
v 3.062500 0.937500 0.000000
v 3.062500 0.000000 0.062500
v 3.937500 0.187500 0.000000
v 3.062500 0.187500 0.062500
v 3.937500 0.000000 0.062500
v 3.937500 0.937500 0.000000
v 3.937500 0.187500 0.062500
v 3.937500 0.937500 -0.125000
v 4.875000 0.000000 -0.125000
v 4.875000 1.625000 -0.125000
v 4.875000 0.000000 -7.875000
v 4.875000 1.625000 -7.875000
v 0.125000 0.000000 -7.875000
v 0.125000 1.625000 -7.875000
v 0.125000 0.000000 -0.125000
v 0.125000 1.625000 -0.125000
v 0.375000 1.250000 0.000000
v 0.375000 0.625000 0.000000
v 1.312500 0.625000 0.000000
v 1.312500 1.250000 0.000000
v 1.812500 1.250000 0.000000
v 1.812500 0.625000 0.000000
v 2.750000 0.625000 0.000000
v 2.750000 1.250000 0.000000
v 2.750000 1.250000 -0.125000
v 2.750000 0.625000 -0.125000
v 1.812500 0.625000 -0.125000
v 1.812500 1.250000 -0.125000
v 1.312500 1.250000 -0.125000
v 1.312500 0.625000 -0.125000
v 0.375000 0.625000 -0.125000
v 0.375000 1.250000 -0.125000
v 4.187500 1.250000 0.000000
v 4.750000 1.250000 0.000000
v 4.750000 0.312500 0.000000
v 4.187500 0.312500 0.000000
v 4.750000 1.250000 -0.125000
v 4.750000 0.312500 -0.125000
v 4.187500 0.312500 -0.125000
v 4.187500 1.250000 -0.125000
v 0.000000 1.312500 -0.312500
v 0.000000 0.625000 -0.312500
v 0.000000 0.625000 -1.437500
v 0.000000 1.312500 -1.437500
v 0.125000 1.312500 -0.312500
v 0.125000 0.625000 -0.312500
v 0.125000 0.625000 -1.437500
v 0.125000 1.312500 -1.437500
v 5.000000 0.187500 -6.062500
v 5.000000 0.937500 -6.937500
v 5.000000 0.937500 -6.062500
v 5.062500 0.000000 -6.937500
v 5.062500 0.187500 -6.937500
v 5.062500 0.000000 -6.062500
v 5.062500 0.187500 -6.062500
v 5.000000 0.187500 -6.937500
v 4.875000 0.000000 -6.937500
v 4.875000 0.000000 -6.062500
v 4.875000 0.937500 -6.937500
v 4.875000 0.937500 -6.062500
v 4.875000 1.625000 -4.125000
v 0.125000 0.000000 -3.875000
v 0.125000 1.625000 -3.875000
v 0.125000 0.000000 -4.125000
v 0.125000 1.625000 -4.125000
v 4.500000 1.625000 -3.875000
v 4.875000 0.000000 -3.875000
v 4.875000 0.000000 -4.125000
v 2.062500 0.000000 -3.875000
v 2.937500 0.000000 -3.875000
v 2.062500 0.937500 -3.875000
v 2.937500 0.937500 -3.875000
v 2.937500 0.000000 -4.125000
v 2.062500 0.000000 -4.125000
v 2.937500 0.937500 -4.125000
v 2.062500 0.937500 -4.125000
v 4.875000 0.000000 -2.000000
v 4.875000 1.625000 -2.000000
v 4.875000 0.000000 -3.000000
v 4.500000 1.625000 -3.000000
v 4.000000 0.000000 -2.000000
v 4.000000 1.625000 -2.000000
v 4.000000 0.000000 -3.000000
v 4.000000 1.625000 -3.000000
v 4.500000 1.250000 -3.875000
v 4.500000 1.250000 -3.000000
v 4.875000 1.250000 -3.000000
v 4.875000 1.250000 -3.875000
v 4.812500 0.375000 -2.000000
v 4.812500 0.000000 -2.000000
v 4.812500 0.375000 -0.125000
v 4.812500 0.000000 -0.125000
v 4.062500 0.375000 -2.000000
v 4.062500 0.000000 -2.000000
v 4.062500 0.375000 -0.125000
v 4.062500 0.000000 -0.125000
vn 1.0000 0.0000 0.0000
vn -1.0000 0.0000 0.0000
vn 0.0000 -1.0000 0.0000
vn 0.0000 0.0000 1.0000
vn 0.0000 0.0000 -1.0000
vn 0.0000 1.0000 0.0000
s off
f 6//1 3//1 8//1
f 7//2 12//2 1//2
f 5//3 12//3 10//3
f 9//2 7//2 1//2
f 3//1 2//1 5//1
f 25//3 29//3 28//3
f 14//2 81//2 13//2
f 16//4 17//4 15//4
f 19//5 35//5 34//5
f 1//5 12//5 43//5
f 30//2 28//2 29//2
f 31//6 27//6 30//6
f 32//1 26//1 31//1
f 23//6 35//6 22//6
f 24//2 34//2 23//2
f 22//1 36//1 21//1
f 21//3 33//3 24//3
f 14//5 44//5 20//5
f 52//1 67//1 20//1
f 46//6 51//6 47//6
f 47//4 52//4 48//4
f 48//3 49//3 45//3
f 45//5 50//5 46//5
f 37//3 41//3 38//3
f 38//2 42//2 39//2
f 39//6 43//6 40//6
f 40//1 44//1 37//1
f 58//5 53//5 59//5
f 56//4 60//4 61//4
f 53//5 64//5 55//5
f 60//4 63//4 61//4
f 55//3 63//3 54//3
f 65//2 16//2 64//2
f 75//1 78//1 80//1
f 51//1 19//1 66//1
f 17//1 69//1 68//1
f 68//5 80//5 78//5
f 75//4 70//4 67//4
f 75//4 66//4 73//4
f 71//4 92//4 89//4
f 79//5 72//5 77//5
f 69//5 79//5 80//5
f 74//2 79//2 77//2
f 76//3 80//3 79//3
f 86//2 87//2 85//2
f 91//2 71//2 83//2
f 82//4 85//4 81//4
f 87//5 88//5 90//5
f 90//2 70//2 89//2
f 91//3 89//3 92//3
f 97//6 95//6 93//6
f 94//3 100//3 98//3
f 95//4 100//4 96//4
f 93//1 96//1 94//1
f 97//5 94//5 98//5
f 99//2 98//2 100//2
f 6//1 4//1 3//1
f 7//2 10//2 12//2
f 5//3 2//3 12//3
f 9//2 11//2 7//2
f 3//1 4//1 2//1
f 25//3 32//3 29//3
f 14//2 82//2 81//2
f 16//4 18//4 17//4
f 34//5 31//5 19//5
f 31//5 30//5 4//5
f 30//5 2//5 4//5
f 4//5 19//5 31//5
f 2//5 30//5 29//5
f 32//5 31//5 34//5
f 12//5 2//5 44//5
f 2//5 29//5 44//5
f 32//5 34//5 33//5
f 29//5 32//5 20//5
f 32//5 33//5 20//5
f 36//5 35//5 20//5
f 35//5 19//5 20//5
f 33//5 36//5 20//5
f 42//5 41//5 13//5
f 41//5 14//5 13//5
f 29//5 20//5 44//5
f 43//5 42//5 13//5
f 43//5 13//5 1//5
f 12//5 44//5 43//5
f 30//2 27//2 28//2
f 31//6 26//6 27//6
f 32//1 25//1 26//1
f 23//6 34//6 35//6
f 24//2 33//2 34//2
f 22//1 35//1 36//1
f 21//3 36//3 33//3
f 14//5 41//5 44//5
f 20//1 19//1 50//1
f 20//1 50//1 49//1
f 51//1 66//1 67//1
f 20//1 49//1 52//1
f 52//1 51//1 67//1
f 46//6 50//6 51//6
f 47//4 51//4 52//4
f 48//3 52//3 49//3
f 45//5 49//5 50//5
f 37//3 44//3 41//3
f 38//2 41//2 42//2
f 39//6 42//6 43//6
f 40//1 43//1 44//1
f 58//5 62//5 53//5
f 56//4 57//4 60//4
f 53//5 62//5 64//5
f 60//4 54//4 63//4
f 55//3 64//3 63//3
f 62//2 72//2 64//2
f 72//2 65//2 64//2
f 16//2 15//2 63//2
f 15//2 61//2 63//2
f 16//2 63//2 64//2
f 75//1 73//1 78//1
f 51//1 50//1 19//1
f 17//1 18//1 69//1
f 68//5 69//5 80//5
f 75//4 76//4 70//4
f 75//4 67//4 66//4
f 89//4 70//4 76//4
f 76//4 74//4 89//4
f 74//4 71//4 89//4
f 79//5 65//5 72//5
f 69//5 65//5 79//5
f 74//2 76//2 79//2
f 76//3 75//3 80//3
f 86//2 88//2 87//2
f 91//2 92//2 71//2
f 82//4 86//4 85//4
f 88//5 84//5 90//5
f 90//5 91//5 83//5
f 83//5 87//5 90//5
f 90//2 84//2 70//2
f 91//3 90//3 89//3
f 97//6 99//6 95//6
f 94//3 96//3 100//3
f 95//4 99//4 100//4
f 93//1 95//1 96//1
f 97//5 93//5 94//5
f 99//2 97//2 98//2
v -1.000000 -1.000000 1.000000
v -1.000000 0.000000 1.000000
v -1.000000 -1.000000 -9.000000
v -1.000000 0.000000 -9.000000
v 6.000000 -1.000000 1.000000
v 6.000000 0.000000 1.000000
v 6.000000 -1.000000 -9.000000
v 6.000000 0.000000 -9.000000
vn -1.0000 0.0000 0.0000
vn 0.0000 0.0000 -1.0000
vn 1.0000 0.0000 0.0000
vn 0.0000 0.0000 1.0000
vn 0.0000 -1.0000 0.0000
vn 0.0000 1.0000 0.0000
s off
f 102//7 103//7 101//7
f 104//8 107//8 103//8
f 108//9 105//9 107//9
f 106//10 101//10 105//10
f 107//11 101//11 103//11
f 104//12 106//12 108//12
f 102//7 104//7 103//7
f 104//8 108//8 107//8
f 108//9 106//9 105//9
f 106//10 102//10 101//10
f 107//11 105//11 101//11
f 104//12 102//12 106//12
v 5.000000 2.000000 -8.000000
v 3.937500 0.000000 -0.125000
v 5.000000 2.000000 0.000000
v 0.000000 2.000000 0.000000
v 0.000000 2.000000 -8.000000
v 5.000000 0.187500 -8.000000
v 5.000000 0.187500 0.000000
v 0.000000 0.187500 0.000000
v 0.000000 0.187500 -8.000000
v 5.062500 0.000000 -8.062500
v 5.062500 0.000000 0.062500
v -0.062500 0.000000 -8.062500
v -0.062500 0.000000 0.062500
v 5.062500 0.187500 -8.062500
v 5.062500 0.187500 0.062500
v -0.062500 0.187500 0.062500
v -0.062500 0.187500 -8.062500
v 3.062500 0.187500 0.000000
v 3.062500 0.000000 -0.125000
v 3.062500 0.937500 0.000000
v 3.062500 0.000000 0.062500
v 3.937500 0.187500 0.000000
v 3.062500 0.187500 0.062500
v 3.937500 0.000000 0.062500
v 3.937500 0.937500 0.000000
v 3.937500 0.187500 0.062500
v 4.875000 0.000000 -0.125000
v 4.875000 1.625000 -0.125000
v 4.875000 0.000000 -7.875000
v 4.875000 1.625000 -7.875000
v 0.125000 0.000000 -7.875000
v 0.125000 1.625000 -7.875000
v 0.125000 0.000000 -0.125000
v 0.125000 1.625000 -0.125000
v 0.375000 1.250000 0.000000
v 0.375000 0.625000 0.000000
v 1.312500 0.625000 0.000000
v 1.312500 1.250000 0.000000
v 1.812500 1.250000 0.000000
v 1.812500 0.625000 0.000000
v 2.750000 0.625000 0.000000
v 2.750000 1.250000 0.000000
v 0.125000 2.000000 -0.125000
v 0.125000 2.000000 -7.875000
v 4.875000 2.000000 -7.875000
v 4.875000 2.000000 -0.125000
v 0.125000 1.875000 -0.125000
v 0.125000 1.875000 -7.875000
v 4.875000 1.875000 -7.875000
v 4.875000 1.875000 -0.125000
v 4.187500 1.250000 0.000000
v 4.750000 1.250000 0.000000
v 4.750000 0.312500 0.000000
v 4.187500 0.312500 0.000000
v 4.750000 1.812500 0.000000
v 4.750000 1.500000 0.000000
v 0.187500 1.500000 0.000000
v 0.187500 1.812500 0.000000
v 4.750000 1.812500 0.062500
v 4.750000 1.500000 0.062500
v 0.187500 1.500000 0.062500
v 0.187500 1.812500 0.062500
v 0.000000 1.312500 -0.312500
v 0.000000 0.625000 -0.312500
v 0.000000 0.625000 -1.437500
v 0.000000 1.312500 -1.437500
v 0.000000 1.750000 -2.000000
v 0.000000 0.437500 -2.000000
v 0.000000 0.437500 -4.750000
v 0.000000 1.750000 -4.750000
v 0.062500 1.750000 -2.000000
v 0.062500 0.437500 -2.000000
v 0.062500 0.437500 -4.750000
v 0.062500 1.750000 -4.750000
v 0.000000 1.750000 -7.625000
v 0.000000 0.437500 -7.625000
v 0.000000 0.437500 -5.250000
v 0.000000 1.750000 -5.250000
v 5.000000 0.187500 -6.937500
v 5.000000 0.187500 -6.062500
v 5.000000 0.937500 -6.937500
v 5.000000 0.937500 -6.062500
v 5.062500 0.000000 -6.937500
v 5.062500 0.187500 -6.937500
v 5.062500 0.000000 -6.062500
v 5.062500 0.187500 -6.062500
v 4.875000 0.000000 -6.062500
v 4.875000 0.000000 -6.937500
v 0.062500 1.750000 -7.625000
v 0.062500 0.437500 -7.625000
v 0.062500 0.437500 -5.250000
v 0.062500 1.750000 -5.250000
vn 1.0000 0.0000 0.0000
vn 0.0000 0.0000 1.0000
vn -1.0000 0.0000 0.0000
vn 0.0000 1.0000 0.0000
vn 0.0000 0.0000 -1.0000
vn 0.0000 -1.0000 0.0000
s off
f 109//13 190//13 189//13
f 169//14 167//14 170//14
f 116//15 171//15 172//15
f 116//16 131//16 126//16
f 117//16 124//16 116//16
f 114//16 192//16 122//16
f 120//17 122//17 118//17
f 124//15 120//15 121//15
f 131//14 121//14 129//14
f 122//13 191//13 118//13
f 115//16 134//16 123//16
f 117//17 109//17 114//17
f 122//16 117//16 114//16
f 123//14 132//14 119//14
f 109//16 154//16 111//16
f 140//18 136//18 142//18
f 119//18 135//18 193//18
f 126//14 148//14 145//14
f 154//17 155//17 151//17
f 113//16 153//16 109//16
f 111//16 151//16 112//16
f 112//16 152//16 113//16
f 156//16 158//16 157//16
f 152//14 157//14 153//14
f 153//15 158//15 154//15
f 151//13 156//13 152//13
f 163//14 111//14 112//14
f 161//14 130//14 115//14
f 166//16 167//16 163//16
f 144//14 143//14 165//14
f 164//18 169//18 165//18
f 165//15 170//15 166//15
f 163//13 168//13 164//13
f 117//15 116//15 177//15
f 181//15 179//15 182//15
f 178//15 175//15 112//15
f 177//14 182//14 178//14
f 175//17 180//17 176//17
f 178//18 179//18 175//18
f 176//16 181//16 177//16
f 113//15 186//15 178//15
f 186//17 199//17 185//17
f 194//16 115//16 123//16
f 194//13 119//13 193//13
f 139//18 121//18 120//18
f 198//15 200//15 197//15
f 184//14 197//14 183//14
f 183//18 200//18 186//18
f 185//16 198//16 184//16
f 187//13 114//13 189//13
f 114//13 109//13 189//13
f 109//13 111//13 190//13
f 111//13 115//13 190//13
f 115//13 188//13 190//13
f 169//14 168//14 167//14
f 116//15 112//15 171//15
f 172//15 173//15 116//15
f 116//16 124//16 131//16
f 117//16 125//16 124//16
f 114//16 187//16 192//16
f 120//17 125//17 122//17
f 124//15 125//15 120//15
f 131//14 124//14 121//14
f 122//13 192//13 191//13
f 115//16 130//16 134//16
f 117//17 113//17 109//17
f 122//16 125//16 117//16
f 123//14 134//14 132//14
f 109//16 153//16 154//16
f 140//18 138//18 136//18
f 119//18 132//18 135//18
f 132//18 110//18 135//18
f 135//18 195//18 193//18
f 126//14 128//14 149//14
f 148//14 146//14 145//14
f 126//14 149//14 148//14
f 144//14 116//14 145//14
f 116//14 126//14 145//14
f 154//17 158//17 155//17
f 113//16 152//16 153//16
f 111//16 154//16 151//16
f 112//16 151//16 152//16
f 156//16 155//16 158//16
f 152//14 156//14 157//14
f 153//15 157//15 158//15
f 151//13 155//13 156//13
f 112//14 166//14 163//14
f 163//14 160//14 111//14
f 115//14 111//14 160//14
f 161//14 162//14 130//14
f 115//14 160//14 161//14
f 166//16 170//16 167//16
f 146//14 148//14 147//14
f 150//14 149//14 128//14
f 143//14 146//14 165//14
f 146//14 147//14 165//14
f 150//14 128//14 159//14
f 128//14 133//14 159//14
f 147//14 150//14 165//14
f 133//14 130//14 162//14
f 133//14 162//14 159//14
f 160//14 163//14 164//14
f 165//14 166//14 112//14
f 160//14 164//14 159//14
f 164//14 165//14 150//14
f 159//14 164//14 150//14
f 165//14 112//14 116//14
f 116//14 144//14 165//14
f 164//18 168//18 169//18
f 165//15 169//15 170//15
f 163//13 167//13 168//13
f 174//15 171//15 175//15
f 174//15 175//15 176//15
f 173//15 174//15 176//15
f 177//15 178//15 186//15
f 116//15 173//15 176//15
f 177//15 186//15 185//15
f 116//15 176//15 177//15
f 183//15 113//15 117//15
f 177//15 185//15 117//15
f 185//15 184//15 117//15
f 184//15 183//15 117//15
f 181//15 180//15 179//15
f 112//15 113//15 178//15
f 175//15 171//15 112//15
f 177//14 181//14 182//14
f 175//17 179//17 180//17
f 178//18 182//18 179//18
f 176//16 180//16 181//16
f 113//15 183//15 186//15
f 186//17 200//17 199//17
f 194//16 188//16 115//16
f 194//13 123//13 119//13
f 118//18 191//18 137//18
f 191//18 196//18 137//18
f 127//18 129//18 141//18
f 129//18 121//18 141//18
f 120//18 118//18 137//18
f 139//18 141//18 121//18
f 120//18 137//18 139//18
f 198//15 199//15 200//15
f 184//14 198//14 197//14
f 183//18 197//18 200//18
f 185//16 199//16 198//16
